{
  "project_info": {
    "project_number": "371905415770",
    "firebase_url": "https://productosexamen.firebaseio.com",
    "project_id": "productosexamen",
    "storage_bucket": "productosexamen.appspot.com"
  },
  "client": [
    {
      "client_info": {
        "mobilesdk_app_id": "1:371905415770:android:ffba292ec45380ea",
        "android_client_info": {
          "package_name": "com.jonylex.jp.productosexamen"
        }
      },
      "oauth_client": [
        {
          "client_id": "371905415770-k5fobmi8vouao1tcsoov1mpdbt3noi1b.apps.googleusercontent.com",
          "client_type": 1,
          "android_info": {
            "package_name": "com.jonylex.jp.productosexamen",
            "certificate_hash": "d6fc81ae7e9004f2672126975eadae4cde051ea5"
          }
        },
        {
          "client_id": "371905415770-dhjgebi7ms9pi7a04apmdkipqbb4560n.apps.googleusercontent.com",
          "client_type": 3
        }
      ],
      "api_key": [
        {
          "current_key": "AIzaSyDuHPsJ0j4IZZMa-PF7eWu09e_vr7yp2cI"
        }
      ],
      "services": {
        "analytics_service": {
          "status": 1
        },
        "appinvite_service": {
          "status": 2,
          "other_platform_oauth_client": [
            {
              "client_id": "371905415770-dhjgebi7ms9pi7a04apmdkipqbb4560n.apps.googleusercontent.com",
              "client_type": 3
            }
          ]
        },
        "ads_service": {
          "status": 2
        }
      }
    }
  ],
  "configuration_version": "1"
}